Regression
…
Code
Data

nes16 = timeseries_2016 %>% 
  select(
    V162079, # Feeling thermometer for TRUMP [POST]
    V162230x, # Better if man works and woman takes care of home [POST]
    V162255, # Is Barack Obama Muslim (yes/no) [POST]
    V161267, # Respondent Age [PRE]
    V161270, # Highest level of Education (Years) [PRE]
    V161158x # Party ID [PRE]
  )

# A tibble: 4,270 × 6
   V162079    V162230x   V162255    V161267    V161270    V161158x  
   <hvn_lbll> <hvn_lbll> <hvn_lbll> <hvn_lbll> <hvn_lbll> <hvn_lbll>
 1 85         4           2         29          9         7         
 2 60         4           1         26         13         6         
 3 70         1           1         23          9         3         
 4 60         1           2         58          9         5         
 5 15         4           1         38          9         3         
 6 65         4          -8         60         14         5         
 7 50         4          -8         58          5         1         
 8 85         1           1         56          9         4         
 9 70         4           2         45          9         5         
10 60         4          -8         30         10         3         
# ℹ 4,260 more rows
…
nes = nes16 %>% 
  select(ft_trump_post,
         women_at_home, obamamuslim,
         age, age0,
         educ_hs, republican)

# A tibble: 4,270 × 7
   ft_trump_post women_at_home obamamuslim   age  age0 educ_hs republican
           <dbl>         <dbl>       <dbl> <dbl> <dbl>   <dbl>      <dbl>
 1            85             0           0    29    11       1          1
 2            60             0           1    26     8       1          1
 3            70             1           1    23     5       1          0
 4            60             1           0    58    40       1          1
 5            15             0           1    38    20       1          0
 6            65             0           0    60    42       1          1
 7            50             0           0    58    40       0          0
 8            85             1           1    56    38       1          0
 9            70             0           0    45    27       1          1
10            60             0           0    30    12       1          0
# ℹ 4,260 more rows
…
