Uncertainty
…
Code
Output

library(gssr)

gss22 = gss_get_yr(2022)

gss = gss22 %>% 
  select(vote20) %>% 
  mutate(vote = ifelse(vote20 == 1, 1, 0)) %>% 
  drop_na()

gss

# A tibble: 3,876 × 2
   vote20            vote
   <dbl+lbl>        <dbl>
 1 1 [voted]            1
 2 1 [voted]            1
 3 1 [voted]            1
 4 1 [voted]            1
 5 1 [voted]            1
 6 1 [voted]            1
 7 2 [did not vote]     0
 8 1 [voted]            1
 9 1 [voted]            1
10 1 [voted]            1
# ℹ 3,866 more rows
…
inverted_ci = hyps %>% 
  map(~t_test(
    x = gss,
    response = vote,
    conf.level = (1-alpha),
    mu = .
  )) %>% 
  bind_rows() %>% 
  select(p_value) %>% 
  mutate(mu = hyps)

inverted_ci

# A tibble: 1,001 × 2
   p_value    mu
     <dbl> <dbl>
 1       0 0    
 2       0 0.001
 3       0 0.002
 4       0 0.003
 5       0 0.004
 6       0 0.005
 7       0 0.006
 8       0 0.007
 9       0 0.008
10       0 0.009
# ℹ 991 more rows
…
